bc397525682af4e74387bb1ecf54a1dbf610a067f7d4c3ea1f
ab70a6932bea585d3ebb2e29d02f6efde1f449b92254022af7
536c3c310f0bdd471e77cba37be095b3aadd7099c3af812cfa
db439007740ac7df5a639a1f1db1cd4e6d889698f1193d57ac
d7e16ae777f6b541ee0d10cf5cce72f28f90b0f8c5665b55d1
bb207cd12f021172b2f888ba18be7a70c4aabf71b5735f0cb9
418e96640365d4ed3cc04ae53d44e830ffe75d50188c9d813f
85a49843455073850bb081da8fafb9c73bd5480e27e98488ae
430ffec12e3c33f25547165edd699b82eb5c9493d8b1c147b2
f7c2c6869f4df9a8f5eda10876c0e303f4b8913036ef0ad548
3c4ebdda227d63fb9f0fdc66710393a1992a601c690484b3bd
4b5e8ed283df1e45e1835b04ce363113154fd2f314839cd8c1
f9eb86394a3eea177394d72b72554e2e4a56f37c2c2a7f7551
1d84008c858080fe35515629b504ad79e9f63e51a8605310ca
8ab46cb95c6104cd5ebb43997fc569d38285c812072cf1b1be
6f31e34edc123551e15189da0473014eea25e85b2f520ee6d0
1dae8b7f9e3400a5e4c8a2cc1bdc51ae9548da9b07bf88215c
24bc9d539e091271bde18362e5b4e6512c738fd6fcc54cfbf0
159094148265f16cd80faea0ed438aa01025420ff289536012
905e66f995bd19ac170155790d7e92f2ec432a8157a1a3343d
8214f0161a489f108fb208e3368a080f666473ddceee4e8015
f213e61b6b2eb20a20d58896aa91b310718cea060dd233fef7
bb7bdf490e40e02f2dbca08d10ee0ead8d4e17a6f8147c43e6
c95f587dc680a46f205072d1b91cdf1a5a742735abb4805ea0
0613b26b1975cc78cf01f59bb7984f543337091e19296b1c54
9a3e0b87632b7984eef033d4bb24d12363a9acfd034a3eda7e
d11f6e520ff5b1a6c4ed4046dde8b13fa32188fbb6b2b4fe39
99edae91c64f0971219512470b78c78075823b31086c26fcbc
ef9052c5091403e9902d4a3144bd82fb6e0c0af646664c8a5b
cbd984a641fbd61326a5ae2b823084e3cf2aaf861337ae91e4
bb7f391fc0f30f07fdcf19f0ee6edeaf25d1033d678d4cbeac
67139e9d4d64a516d40b2517998c443ec50c9d28b109dca2ff
ea15032f1a5ceb08c9896cfdbf212e241d994ebc2bedde68ff
9caeb1f8220ca0c1ca956002c93a5d517438f404738d367a2a
ae249d1c30b20066565b565aad9c63759ec503dccd629e6bba
b53dc5aff555fa1ffe183a462b74035432caf79900e6658fff
2b5f800a319ea830e2d61426c8e8a974a212bf0acc086d9fe4
837a1aa1f2d1d3bbaf5325ce69e7e1d746e268f9074d792aaa
a3b7ccc369c4231a52243fc32db5cb4c95dd71fbb9615bd9a4
cd700a594b63422dfcd037879b817bdb93db463720a0f58016
